1,Хмельницкий,Хмельницкая область,Центральная Украина,49.416668,27.000000
2,Каменец-Подольский,Хмельницкая область,Центральная Украина,48.683334,26.583332
3,Нетишин,Хмельницкая область,Центральная Украина,50.346695,26.633587
4,Славута,Хмельницкая область,Центральная Украина,50.299999,26.866667
5,Староконстантинов,Хмельницкая область,Центральная Украина,49.755554,27.220833
6,Шепетовка,Хмельницкая область,Центральная Украина,50.182003,27.066854
7,Волочиск,Хмельницкая область,Центральная Украина,49.528984,26.208408
8,Городок,Хмельницкая область,Центральная Украина,49.163685,26.578232
9,Деражня,Хмельницкая область,Центральная Украина,49.266666,27.433332
10,Дунаевцы,Хмельницкая область,Центральная Украина,48.890911,26.849583
11,Изяслав,Хмельницкая область,Центральная Украина,50.118732,26.838671
12,Красилов,Хмельницкая область,Центральная Украина,49.651943,26.970556
13,Полонное,Хмельницкая область,Центральная Украина,50.116669,27.516666
23,Летичев,Хмельницкая область,Центральная Украина,49.383331,27.616667
29,Теофиполь,Хмельницкая область,Центральная Украина,49.841946,26.411943
32,Житомир,Житомирская область,Центральная Украина,50.250000,28.666668
33,Бердичев,Житомирская область,Центральная Украина,49.907902,28.587934
34,Коростень,Житомирская область,Центральная Украина,50.961830,28.635452
35,Новоград-Волынский,Житомирская область,Центральная Украина,50.583332,27.633333
36,Малин,Житомирская область,Центральная Украина,50.770515,29.258142
38,Овруч,Житомирская область,Центральная Украина,51.327831,28.813343
48,Попельня,Житомирская область,Центральная Украина,49.966389,29.443333
49,Винница,Винницкая область,Центральная Украина,49.233334,28.483334
51,Могилёв-Подольский,Винницкая область,Центральная Украина,48.450001,27.799999
52,Хмельник,Винницкая область,Центральная Украина,49.559605,27.957466
54,Казатин,Винницкая область,Центральная Украина,49.720551,28.849070
56,Калиновка,Винницкая область,Центральная Украина,49.451698,28.524940
67,Белая Церковь,Киевская область,Центральная Украина,49.801945,30.115196
68,Бровары,Киевская область,Центральная Украина,50.516666,30.816668
69,Борисполь,Киевская область,Центральная Украина,50.359451,30.974171
70,Вишнёвое,Киевская область,Центральная Украина,50.386944,30.358055
71,Фастов,Киевская область,Центральная Украина,50.080322,29.915285
72,Буча,Киевская область,Центральная Украина,50.557365,30.226593
73,Васильков,Киевская область,Центральная Украина,50.178333,30.315832
74,Ирпень,Киевская область,Центральная Украина,50.521523,30.247663
75,Боярка,Киевская область,Центральная Украина,50.329166,30.288610
76,Обухов,Киевская область,Центральная Украина,50.103436,30.636269
77,Переяслав-Хмельницкий,Киевская область,Центральная Украина,50.066113,31.442223
78,Славутич,Киевская область,Центральная Украина,51.521736,30.766966
79,Яготин,Киевская область,Центральная Украина,50.276413,31.761362
80,Украинка,Киевская область,Центральная Украина,50.153088,30.743492
81,Вышгород,Киевская область,Центральная Украина,50.583332,30.500000
83,Богуслав,Киевская область,Центральная Украина,49.546665,30.872778
86,Коцюбинское,Киевская область,Центральная Украина,51.000000,30.000000
87,Кагарлык,Киевская область,Центральная Украина,49.862064,30.819241
89,Чернигов,Черниговская область,Центральная Украина,51.500000,31.299999
90,Нежин,Черниговская область,Центральная Украина,51.038055,31.886110
91,Прилуки,Черниговская область,Центральная Украина,50.595543,32.384563
92,Бахмач,Черниговская область,Центральная Украина,51.183056,32.829723
94,Носовка,Черниговская область,Центральная Украина,50.933334,31.583332
98,Ичня,Черниговская область,Центральная Украина,50.858280,32.375816
102,Варва,Черниговская область,Центральная Украина,50.494999,32.723610
105,Репки,Черниговская область,Центральная Украина,51.800476,31.096655
108,Десна,Черниговская область,Центральная Украина,50.924667,30.756001
117,Сумы,Сумская область,Центральная Украина,50.894405,34.810600
118,Конотоп,Сумская область,Центральная Украина,51.240944,33.205051
119,Шостка,Сумская область,Центральная Украина,51.866669,33.483334
120,Ахтырка,Сумская область,Центральная Украина,50.295891,34.913322
121,Ромны,Сумская область,Центральная Украина,50.745621,33.491516
123,Лебедин,Сумская область,Центральная Украина,50.579723,34.477222
124,Кролевец,Сумская область,Центральная Украина,51.549999,33.383331
128,Бурынь,Сумская область,Центральная Украина,51.204182,33.825142
131,Воронеж,Сумская область,Центральная Украина,51.769001,33.471912
133,Свесса,Сумская область,Центральная Украина,51.947453,33.933449
134,Полтава,Полтавская область,Центральная Украина,49.595348,34.562946
135,Кременчуг,Полтавская область,Центральная Украина,49.107807,33.419868
136,Комсомольск,Полтавская область,Центральная Украина,49.014851,33.638905
137,Лубны,Полтавская область,Центральная Украина,50.016666,33.000000
138,Миргород,Полтавская область,Центральная Украина,49.966667,33.599998
139,Гадяч,Полтавская область,Центральная Украина,50.370434,34.000988
140,Карловка,Полтавская область,Центральная Украина,49.450001,35.133331
141,Пирятин,Полтавская область,Центральная Украина,50.237392,32.503929
154,Черкассы,Черкасская область,Центральная Украина,49.433334,32.066666
155,Умань,Черкасская область,Центральная Украина,48.750000,30.216667
156,Смела,Черкасская область,Центральная Украина,49.213188,31.874636
157,Золотоноша,Черкасская область,Центральная Украина,49.671642,32.039875
158,Канев,Черкасская область,Центральная Украина,49.750000,31.466667
160,Корсунь-Шевченковский,Черкасская область,Центральная Украина,49.427689,31.280434
166,Каменка,Черкасская область,Центральная Украина,49.030647,32.115093
172,Чернобай,Черкасская область,Центральная Украина,49.670555,32.323055
173,Кировоград,Кировоградская область,Центральная Украина,48.521519,32.245037
174,Александрия,Кировоградская область,Центральная Украина,48.671577,33.095905
175,Светловодск,Кировоградская область,Центральная Украина,49.050323,33.224224
177,Знаменка,Кировоградская область,Центральная Украина,48.713612,32.673332
184,Александровка,Кировоградская область,Центральная Украина,48.726391,33.302223
186,Новоархангельск,Кировоградская область,Центральная Украина,48.658890,30.818611
187,Киев,Киев,Центральная Украина,50.450001,30.523333
188,Луцк,Волынская область,Западная Украина,50.750000,25.335833
189,Ковель,Волынская область,Западная Украина,51.214230,24.709341
190,Нововолынск,Волынская область,Западная Украина,50.733334,24.166668
191,Владимир-Волынский,Волынская область,Западная Украина,50.848057,24.322222
193,Рожище,Волынская область,Западная Украина,50.896946,25.263649
203,Шацк,Волынская область,Западная Украина,51.508942,23.942455
204,Старая Выжевка,Волынская область,Западная Украина,51.440834,24.431667
205,Ровно,Ровненская область,Западная Украина,50.619900,26.251617
206,Кузнецовск,Ровненская область,Западная Украина,51.343655,25.849087
208,Костополь,Ровненская область,Западная Украина,50.883331,26.450001
209,Сарны,Ровненская область,Западная Украина,51.337223,26.605833
210,Здолбунов,Ровненская область,Западная Украина,50.513374,26.261707
214,Дубровица,Ровненская область,Западная Украина,51.566174,26.559423
219,Клевань,Ровненская область,Западная Украина,50.745834,26.012501
220,Рокитное,Ровненская область,Западная Украина,51.261391,27.224443
221,Заречное,Ровненская область,Западная Украина,51.808849,26.122766
223,Львов,Львовская область,Западная Украина,49.849998,24.016666
224,Дрогобыч,Львовская область,Западная Украина,49.349567,23.521914
225,Червоноград,Львовская область,Западная Украина,50.386303,24.227007
226,Стрый,Львовская область,Западная Украина,49.255730,23.846489
227,Борислав,Львовская область,Западная Украина,49.283333,23.416668
229,Трускавец,Львовская область,Западная Украина,49.280556,23.504999
230,Новый Раздол,Львовская область,Западная Украина,49.471943,24.133333
232,Золочев,Львовская область,Западная Украина,49.808334,24.901112
233,Броды,Львовская область,Западная Украина,50.083332,25.150000
234,Сокаль,Львовская область,Западная Украина,50.483334,24.283333
236,Городок,Львовская область,Западная Украина,49.782223,23.643612
240,Яворов,Львовская область,Западная Украина,49.946945,23.393057
242,Жидачов,Львовская область,Западная Украина,49.381390,24.140833
243,Каменка Бугская,Львовская область,Западная Украина,50.099998,24.350000
245,Тернополь,Тернопольская область,Западная Украина,49.566666,25.600000
247,Кременец,Тернопольская область,Западная Украина,50.119720,25.716667
248,Бережаны,Тернопольская область,Западная Украина,49.441257,24.942978
249,Збараж,Тернопольская область,Западная Украина,49.666668,25.777779
251,Бучач,Тернопольская область,Западная Украина,49.064831,25.381716
254,Козова,Тернопольская область,Западная Украина,49.433105,25.154863
264,Ивано-Франковск,Ивано-Франковская область,Западная Украина,48.916668,24.716667
265,Калуш,Ивано-Франковская область,Западная Украина,49.044167,24.359722
266,Коломыя,Ивано-Франковская область,Западная Украина,48.530556,25.040277
269,Бурштын,Ивано-Франковская область,Западная Украина,49.263626,24.630482
272,Снятын ,Ивано-Франковская область,Западная Украина,48.450001,25.566668
274,Городенка,Ивано-Франковская область,Западная Украина,48.667500,25.500278
278,Рогатин,Ивано-Франковская область,Западная Украина,49.411449,24.620510
280,Яремче,Ивано-Франковская область,Западная Украина,48.460278,24.558611
281,Богородчаны,Ивано-Франковская область,Западная Украина,48.808056,24.538055
282,Ужгород,Закарпатская область,Западная Украина,48.618626,22.298758
283,Мукачево,Закарпатская область,Западная Украина,48.429031,22.705820
284,Хуст,Закарпатская область,Западная Украина,48.181389,23.297777
285,Виноградов,Закарпатская область,Западная Украина,48.149723,23.025000
286,Берегово,Закарпатская область,Западная Украина,48.200001,22.633333
287,Свалява,Закарпатская область,Западная Украина,48.547890,23.001602
288,Рахов,Закарпатская область,Западная Украина,48.061604,24.209749
289,Тячев,Закарпатская область,Западная Украина,48.015438,23.570059
290,Иршава,Закарпатская область,Западная Украина,48.310059,23.042372
298,Королёво,Закарпатская область,Западная Украина,48.150002,23.133333
300,Черновцы,Черновицкая область,Западная Украина,48.299999,25.933332
303,Новоднестровск,Черновицкая область,Западная Украина,48.573952,27.443825
304,Сокиряны,Черновицкая область,Западная Украина,48.450001,27.416668
306,Глыбокая,Черновицкая область,Западная Украина,48.085274,25.931515
310,Кельменцы,Черновицкая область,Западная Украина,48.463333,26.829166
311,Кицмань,Черновицкая область,Западная Украина,48.441223,25.764149
313,Харьков,Харьковская область,Восточная Украина,49.948071,36.212299
314,Лозовая,Харьковская область,Восточная Украина,48.890392,36.311512
315,Купянск,Харьковская область,Восточная Украина,49.705334,37.598869
316,Изюм,Харьковская область,Восточная Украина,49.212776,37.256943
317,Чугуев,Харьковская область,Восточная Украина,49.835556,36.686390
318,Первомайский,Харьковская область,Восточная Украина,49.389767,36.212727
319,Балаклея,Харьковская область,Восточная Украина,49.459057,36.844929
320,Мерефа,Харьковская область,Восточная Украина,49.814953,36.058899
322,Красноград,Харьковская область,Восточная Украина,49.366669,35.450001
323,Песочин,Харьковская область,Восточная Украина,49.953888,36.109165
324,Волчанск,Харьковская область,Восточная Украина,50.300278,36.946667
325,Дергачи,Харьковская область,Восточная Украина,50.110157,36.093513
326,Богодухов,Харьковская область,Восточная Украина,50.160831,35.516388
327,Змиёв,Харьковская область,Восточная Украина,49.694405,36.359547
328,Комсомольское,Харьковская область,Восточная Украина,49.598331,36.528057
329,Солоницевка,Харьковская область,Восточная Украина,49.996334,36.035149
331,Высокий,Харьковская область,Восточная Украина,49.884998,36.111111
339,Кременная,Луганская область,Восточная Украина,49.049999,38.221111
340,Лутугино,Луганская область,Восточная Украина,48.402279,39.209122
341,Молодогвардейск,Луганская область,Восточная Украина,48.344444,39.658333
343,Петровское,Луганская область,Восточная Украина,48.305401,38.892288
346,Старобельск,Луганская область,Восточная Украина,49.283333,38.916668
349,Алчевск,Луганская область,Восточная Украина,48.466667,38.799999
350,Антрацит,Луганская область,Восточная Украина,48.133602,39.095322
353,Красный Луч,Луганская область,Восточная Украина,48.133331,38.933334
354,Краснодон,Луганская область,Восточная Украина,48.299999,39.733334
355,Лисичанск,Луганская область,Восточная Украина,48.913696,38.434643
356,Луганск,Луганская область,Восточная Украина,48.566666,39.299999
357,Первомайск,Луганская область,Восточная Украина,48.629723,38.561943
358,Ровеньки,Луганская область,Восточная Украина,48.083332,39.366669
359,Рубежное,Луганская область,Восточная Украина,49.010860,38.374069
360,Свердловск,Луганская область,Восточная Украина,48.084549,39.651630
361,Северодонецк,Луганская область,Восточная Украина,48.933334,38.500000
362,Стаханов,Луганская область,Восточная Украина,48.566666,38.650002
369,Новодружеск,Луганская область,Восточная Украина,48.966667,38.349998
370,Днепропетровск,Днепропетровская область,Восточная Украина,48.450001,34.983334
371,Кривой Рог,Днепропетровская область,Восточная Украина,48.020336,33.453720
372,Днепродзержинск,Днепропетровская область,Восточная Украина,48.516666,34.616669
373,Никополь,Днепропетровская область,Восточная Украина,47.566666,34.400002
374,Павлоград,Днепропетровская область,Восточная Украина,48.521645,35.893383
375,Новомосковск,Днепропетровская область,Восточная Украина,48.633331,35.216667
376,Жёлтые Воды,Днепропетровская область,Восточная Украина,48.349998,33.500000
377,Марганец,Днепропетровская область,Восточная Украина,47.663128,34.617218
378,Орджоникидзе,Днепропетровская область,Восточная Украина,47.656883,34.054184
380,Терновка,Днепропетровская область,Восточная Украина,48.517799,36.078690
382,Вольногорск,Днепропетровская область,Восточная Украина,48.483334,34.016666
386,Авдеевка,Донецкая область,Восточная Украина,48.142483,37.748463
387,Артёмовск,Донецкая область,Восточная Украина,48.606945,37.997044
388,Горловка,Донецкая область,Восточная Украина,48.328033,38.046005
389,Дебальцево,Донецкая область,Восточная Украина,48.333332,38.400002
390,Дзержинск,Донецкая область,Восточная Украина,48.394711,37.844364
391,Димитров,Донецкая область,Восточная Украина,48.305847,37.271065
392,Доброполье,Донецкая область,Восточная Украина,48.799999,37.183334
393,Докучаевск,Донецкая область,Восточная Украина,47.768002,37.683666
394,Донецк,Донецкая область,Восточная Украина,48.002777,37.805279
395,Дружковка,Донецкая область,Восточная Украина,48.616669,37.533333
396,Енакиево,Донецкая область,Восточная Украина,48.216667,38.200001
399,Константиновка,Донецкая область,Восточная Украина,48.517540,37.695026
400,Краматорск,Донецкая область,Восточная Украина,48.744835,37.595497
401,Красноармейск,Донецкая область,Восточная Украина,48.281029,37.173351
402,Красный Лиман,Донецкая область,Восточная Украина,48.980747,37.815620
403,Макеевка,Донецкая область,Восточная Украина,48.053108,37.947506
404,Мариуполь,Донецкая область,Восточная Украина,47.116669,37.549999
405,Новогродовка,Донецкая область,Восточная Украина,48.204540,37.336823
406,Селидово,Донецкая область,Восточная Украина,48.144672,37.297897
407,Славянск,Донецкая область,Восточная Украина,48.839588,37.569221
408,Снежное,Донецкая область,Восточная Украина,48.028278,38.765610
409,Торез,Донецкая область,Восточная Украина,48.031055,38.624321
410,Угледар,Донецкая область,Восточная Украина,47.783333,37.250000
411,Харцызск,Донецкая область,Восточная Украина,48.042294,38.146065
413,Ясиноватая,Донецкая область,Восточная Украина,48.127293,37.853649
414,Запорожье,Запорожская область,Восточная Украина,47.833332,35.166668
415,Мелитополь,Запорожская область,Восточная Украина,46.833332,35.366669
416,Бердянск,Запорожская область,Восточная Украина,46.758369,36.808067
417,Энергодар,Запорожская область,Восточная Украина,47.497990,34.656532
418,Токмак,Запорожская область,Восточная Украина,47.250000,35.700001
420,Днепрорудное,Запорожская область,Восточная Украина,47.386902,34.995564
423,Гуляйполе,Запорожская область,Восточная Украина,47.663155,36.261192
427,Приморск,Запорожская область,Восточная Украина,46.729881,36.366516
429,Николаев,Николаевская область,Восточная Украина,46.966667,32.000000
430,Первомайск,Николаевская область,Восточная Украина,48.043610,30.859224
431,Вознесенск,Николаевская область,Восточная Украина,47.566933,31.326382
432,Южноукраинск,Николаевская область,Восточная Украина,47.816666,31.183332
433,Новый Буг,Николаевская область,Восточная Украина,47.683334,32.500000
437,Баштанка,Николаевская область,Восточная Украина,47.400002,32.450001
440,Арбузинка,Николаевская область,Восточная Украина,47.906666,31.313057
442,Херсон,Херсонская область,Восточная Украина,46.633331,32.583332
443,Новая Каховка,Херсонская область,Восточная Украина,46.766666,33.366669
444,Каховка,Херсонская область,Восточная Украина,46.809837,33.483078
445,Цюрупинск,Херсонская область,Восточная Украина,46.621349,32.697884
446,Геническ,Херсонская область,Восточная Украина,46.166668,34.799999
447,Скадовск,Херсонская область,Восточная Украина,46.116669,32.916668
451,Таврийск,Херсонская область,Восточная Украина,46.754036,33.420582
452,Новотроицкое,Херсонская область,Восточная Украина,46.354443,34.336109
456,Белозёрка,Херсонская область,Восточная Украина,46.629166,32.440277
458,Одесса,Одесская область,Восточная Украина,46.466667,30.733334
459,Измаил,Одесская область,Восточная Украина,45.351665,28.836390
460,Ильичёвск,Одесская область,Восточная Украина,46.305500,30.662245
461,Белгород-Днестровский,Одесская область,Восточная Украина,46.186779,30.328447
462,Котовск,Одесская область,Восточная Украина,47.750000,29.533333
464,Южное ,Одесская область,Восточная Украина,46.624496,31.102903
465,Килия,Одесская область,Восточная Украина,45.467175,29.258871
467,Раздельная,Одесская область,Восточная Украина,46.848610,30.079166
468,Болград,Одесская область,Восточная Украина,45.677937,28.630095
470,Беляевка,Одесская область,Восточная Украина,46.473122,30.214037
471,Овидиополь,Одесская область,Восточная Украина,46.244720,30.444721
477,Теплодар,Одесская область,Восточная Украина,46.500000,30.333332
478,Вилково,Одесская область,Восточная Украина,45.400002,29.583332
479,Алупка,Крым,Восточная Украина,44.419724,34.043056
480,Алушта,Крым,Восточная Украина,44.676384,34.410049
481,Армянск,Крым,Восточная Украина,46.107224,33.693333
482,Бахчисарай,Крым,Восточная Украина,44.752777,33.860832
484,Джанкой,Крым,Восточная Украина,45.708611,34.393333
485,Евпатория,Крым,Восточная Украина,45.190449,33.366867
487,Керчь,Крым,Восточная Украина,45.355316,36.470833
488,Красноперекопск,Крым,Восточная Украина,45.954948,33.799820
489,Саки,Крым,Восточная Украина,45.133610,33.577221
490,Севастополь,Севастополь,Восточная Украина,44.508850,33.600510
491,Симферополь,Крым,Восточная Украина,44.952118,34.102417
493,Судак,Крым,Восточная Украина,44.850468,34.976185
494,Феодосия,Крым,Восточная Украина,45.031933,35.382435
496,Щёлкино,Крым,Восточная Украина,45.428101,35.816521
497,Ялта,Крым,Восточная Украина,44.497601,34.169918
498,Добромиль,Львовская область,Западная Украина,49.566666,22.783333
499,Научный,Крым,Восточная Украина,44.725834,34.011665
501,Узин,Киевская область,Центральная Украина,49.819122,30.426052
502,Барышевка,Киевская область,Центральная Украина,50.348984,31.323385
503,Мамаевцы,Черновицкая область,Западная Украина,48.350277,25.825556
504,Беспятное,Киевская область,Центральная Украина,50.160831,30.260000
505,Овлаши,Сумская область,Центральная Украина,50.765244,33.421181
506,Курахово,Донецкая область,Восточная Украина,47.983334,37.266666
507,Оноковцы,Закарпатская область,Западная Украина,48.654167,22.341667
509,Перечин,Закарпатская область,Западная Украина,48.734165,22.474167
511,Великий Берёзный,Закарпатская область,Западная Украина,48.893612,22.457500
512,Пустомыты,Львовская область,Западная Украина,49.713890,23.910833
514,Мостиска,Львовская область,Западная Украина,49.794167,23.152500
521,Галич,Ивано-Франковская область,Западная Украина,49.125053,24.729639
536,Шаргород,Винницкая область,Центральная Украина,48.740124,28.086960
543,Черневцы,Винницкая область,Центральная Украина,48.542778,28.107500
550,Бородянка,Киевская область,Центральная Украина,50.643890,29.933889
551,Макаров,Киевская область,Центральная Украина,50.461979,29.818146
554,Чернобыль,Киевская область,Центральная Украина,51.261925,30.236046
557,Катеринополь,Черкасская область,Центральная Украина,48.948158,30.962494
619,Валки,Харьковская область,Восточная Украина,49.840019,35.613464
620,Близнюки,Харьковская область,Восточная Украина,48.856113,36.556622
621,Кегичёвка,Харьковская область,Восточная Украина,49.285831,35.762222
622,Краснокутск,Харьковская область,Восточная Украина,50.056667,35.149166
640,Амвросиевка,Донецкая область,Восточная Украина,47.790432,38.473763
649,Марковка,Луганская область,Восточная Украина,49.525276,39.555557
653,Нижнегорский,Крым,Восточная Украина,45.448811,34.736420
659,Лиманское,Одесская область,Восточная Украина,46.663891,29.970833
660,Зазимье,Киевская область,Центральная Украина,50.568054,30.683332
